…
Agora vou tentar no client grande. 
> mutate (client,year = stringr::str_sub(client$birth_number,1,2), month = stringr::str_sub(client$birth_number,3,4), day = stringr::str_sub(client$birth_number,5,6) )
# A tibble: 5,369 × 6
   client_id birth_number district_id  year month   day
       <int>        <int>       <int> <chr> <chr> <chr>
1          1       706213          18    70    62    13
2          2       450204           1    45    02    04
3          3       406009           1    40    60    09
4          4       561201           5    56    12    01
5          5       605703           5    60    57    03
6          6       190922          12    19    09    22
7          7       290125          15    29    01    25
8          8       385221          51    38    52    21
9          9       351016          60    35    10    16
10        10       430501          57    43    05    01
# ... with 5,359 more rows
…

Criar as colunas
> client_2 = mutate (client,year = stringr::str_sub(client$birth_number,1,2), month = stringr::str_sub(client$birth_number,3,4), day = stringr::str_sub(client$birth_number,5,6) )

> client_2$year = as.numeric(client_2$year)
> client_2$month = as.numeric(client_2$month) 
> client_2$day = as.numeric(client_2$day) 



 E agora o filtro
> filter (client_2, month < 50) 
# A tibble: 2,724 × 6
   client_id birth_number district_id  year month   day
       <int>        <int>       <int> <dbl> <dbl> <dbl>
1          2       450204           1    45     2     4
2          4       561201           5    56    12     1
3          6       190922          12    19     9    22
4          7       290125          15    29     1    25
5          9       351016          60    35    10    16
6         10       430501          57    43     5     1
7         12       810220          40    81     2    20
8         16       190225          21    19     2    25
9         17       341013          76    34    10    13
10        19       421228          47    42    12    28
# ... with 2,714 more rows

> client_men =  filter (client_2, month < 50) 
> client_women =  filter (client_2, month > 50) 
> write.csv2 (client_men, file = "client_men.csv")
> write.csv2 (client_women, file = "client_women.csv")

> client_women2 = mutate(client_women, month2 = month - 50, sex = "F")
> client_women2 [-2]
# A tibble: 2,645 × 7
   client_id district_id  year month   day month2   sex
       <int>       <int> <dbl> <dbl> <dbl>  <dbl> <chr>
1          1          18    70    62    13     12     F
2          3           1    40    60     9     10     F
3          5           5    60    57     3      7     F
4          8          51    38    52    21      2     F
5         11          57    50    58    22      8     F
6         13          54    74    55    29      5     F
7         14          76    42    56    22      6     F
8         15          21    18    58    28      8     F
9         18          76    31    54     5      4     F
10        21          12    52    60    29     10     F
# ... with 2,635 more rows

> client_men2 [-2]
# A tibble: 2,724 × 7
   client_id district_id  year month   day month2   sex
       <int>       <int> <dbl> <dbl> <dbl>  <dbl> <chr>
1          2           1    45     2     4      2     M
2          4           5    56    12     1     12     M
3          6          12    19     9    22      9     M
4          7          15    29     1    25      1     M
5          9          60    35    10    16     10     M
6         10          57    43     5     1      5     M
7         12          40    81     2    20      2     M
8         16          21    19     2    25      2     M
9         17          76    34    10    13     10     M
10        19          47    42    12    28     12     M
# ... with 2,714 more rows

> write.csv2 (client_men2, file = "client_men2.csv")
> write.csv2 (client_women2, file = "client_women2.csv")

> good_clients = select (acc_ok_disp,client_id,disp_id)

Fazendo o join de good_client com o cliente_men2 e também com wonen_2
> good_clients_data = inner_join(good_clients, client_men2, by = c('client_id'))
> good_clients_data_wonem = inner_join(good_clients, client_women2, by = c('client_id'))

 

> inner_join(good_clients_data_wonem, card, by = c('disp_id'))
# A tibble: 83 × 12
   client_id disp_id birth_number district_id  year month   day
       <int>   <int>        <int>       <int> <dbl> <dbl> <dbl>
1       2235    2235       405420          14    40    54    20
2      11409   11101       805502          32    80    55     2
3       9593    9285       685128          74    68    51    28
4      12396   12088       705117          62    70    51    17
5       5366    5366       715920          60    71    59    20
6       6178    6178       406015           1    40    60    15
7       6301    6301       495308          55    49    53     8
8      10095    9787       765206           1    76    52     6
9       2623    2623       655716          16    65    57    16
10      7286    7286       705210          47    70    52    10
# ... with 73 more rows, and 5 more variables: month2 <dbl>,
#   sex <chr>, card_id <int>, type <chr>, issued <chr>

Ou seja, das 376 mulheres boas pagadoras, somente 83 tem cartões. 
> inner_join(good_clients_data, card, by = c('disp_id'))
# A tibble: 82 × 12
   client_id disp_id birth_number district_id  year month   day
       <int>   <int>        <int>       <int> <dbl> <dbl> <dbl>
1       7127    7127       570929           3    57     9    29
2       6789    6789       790326          57    79     3    26
3      13539   13231       780907          63    78     9     7
4      10198    9890       760524          31    76     5    24
5      13201   12893       370517          31    37     5    17
6       3687    3687       720206          49    72     2     6
7      11195   10887       531205          58    53    12     5
8       5911    5911       351003          14    35    10     3
9      10043    9735       651029          45    65    10    29
10      7576    7576       620710          38    62     7    10
# ... with 72 more rows, and 5 more variables: month2 <dbl>,
#   sex <chr>, card_id <int>, type <chr>, issued <chr>
…
